992220 664118 525
892597 401695 525
730523 289994 509
251871 295181 407
288381 928841 525
700239 837987 525
332329 554720 470
736287 351238 509
567175 215051 470
106144 739385 509
34319 824705 509
475983 899423 525
321539 49032 443
60533 682409 509
3710 390239 443
700879 863307 525
593315 411115 470
797165 968633 525
908154 823331 525
960432 663199 525
740732 453322 509
678744 203176 509
332094 466388 449
125626 651484 509
492907 93228 449
486401 774973 509
370856 355269 410
29332 610953 470
99689 805860 509
130262 961793 525
237036 88019 443
266314 849905 525
964618 838684 507
170172 498857 449
73054 298800 443
409860 202000 443
538490 320969 470
674013 390437 509
508236 864409 525
506879 294855 449
863030 111729 525
66772 552342 470
502007 538085 470
586303 688416 509
605840 469503 470
752569 55926 509
42609 562558 470
319559 472594 449
645664 726508 504
768275 231090 509
883127 842136 432
845419 928864 476
411168 853066 525
628097 719355 504
75826 16149 340
116107 898934 525
470248 632856 509
541316 962167 525
264449 404 443
758363 866557 525
625724 694126 509
702909 509941 509
600156 317798 470
743307 350133 509
443917 414794 418
825648 571576 509
13755 6705 276
656359 221246 509
646875 311384 509
616048 411190 470
484821 59382 449
695363 934625 525
106162 241068 443
269770 577910 470
93192 244975 443
224875 611043 470
729385 976139 525
617139 987300 525
717102 575337 509
951364 806528 525
89527 24653 351
49331 56732 340
837065 194895 509
868060 762676 525
508226 953637 525
174394 32004 383
955620 529003 525
17263 624408 470
94157 101790 341
78175 35914 351
586108 831173 509
334188 178240 443
863107 550495 525
190841 831604 509
454847 978116 525
432266 916851 525
653938 611206 509
733317 573414 509
241842 808203 509
85263 934549 525
73316 68843 325
341628 762910 509
913368 779965 525
86101 799198 509
256741 318114 407
553335 907158 525
958069 334186 525
513719 21601 470
926004 724328 525
612117 560629 434
675610 480219 509
472919 858953 525
60009 954452 525
31518 322185 443
950640 119590 525
899468 20776 525
534660 841762 525
391984 911532 525
637665 530473 509
285873 325603 389
330610 155446 443
511059 831540 509
481665 20766 449
83356 999824 525
367904 200112 443
685755 570512 509
584614 989699 525
707067 520689 509
852797 785002 525
965040 492625 525
139780 508298 449
920905 92230 525
797299 288409 509
857138 612786 525
865792 257768 525
216826 786399 509
407553 956403 525
679370 997861 525
919200 215815 525
797192 250466 509
749604 181047 509
24072 6173 282
64862 219645 386
118267 113871 349
934771 123539 525
841127 846398 401
37 845825 525
417865 577791 470
189841 853755 525
855265 603912 525
382939 778044 509
596451 976527 525
826473 988550 525
827497 676934 504
970427 301386 525
470720 581486 470
962552 746794 525
941051 571720 525
831535 320348 509
381941 704633 509
118931 62613 354
810325 998103 525
220435 60572 386
339701 975058 525
452452 320902 449
821374 978536 525
420074 938591 525
410756 53156 449
191033 500554 449
127542 32691 354
417468 459399 418
412778 564879 470
764377 640375 504
546299 542706 359
364708 436993 449
979503 783273 525
976960 40023 525
149501 138092 375
370150 958848 525
774731 379156 509
919152 748007 525
248892 276855 407
666068 633595 442
639993 506426 509
242698 440013 449
745367 253282 509
618931 704507 509
10799 937984 525
991309 91283 525
771959 943582 525
10833 612482 470
100437 599566 470
692639 368278 509
651991 69635 509
415867 776647 509
869243 253404 525
577005 422308 470
240110 500653 449
812059 56927 509
15629 558797 470
28230 564706 470
804678 771653 468
21258 812038 509
449480 880638 525
647385 117641 509
642034 502356 509
431224 524944 470
629096 560709 509
481617 821207 509
264995 376179 441
724951 913037 525
709439 840197 525
972250 515272 525
811806 607343 509
495408 905127 525
981978 407167 525
608379 662009 509
215517 668713 509
412224 632405 509
655511 92380 509
47749 798292 509
850925 72563 525
159261 799375 509
873826 196094 525
352414 663815 509
246956 553268 470
786506 670907 504
270476 912768 525
849215 398418 525
787066 960586 525
394643 673310 509
301556 476256 449
535037 161869 470
952237 548266 525
979754 665538 525
575946 545311 452
953617 958680 383
339376 107464 443
869451 859708 388
843682 984131 507
109648 387278 443
881892 100038 525
758428 405403 509
615933 999819 525
49148 724703 509
183146 965868 525
839667 255647 525
519921 390837 470
199041 821840 509
546870 486420 470
719595 151501 509
37392 984617 525
352176 940292 525
856466 941104 507
721412 940655 525
543545 500075 470
716806 699874 504
704576 957466 525
739307 538332 509
734445 763760 424
660881 193205 509
223573 314516 443
594917 55851 470
349023 600216 470
386579 734144 509
928216 692683 525
812130 77318 509
314453 13035 443
998447 573584 525
131293 638429 509
262126 780228 509
863881 894550 445
726006 61792 509
117846 473928 449
341349 476941 449
571724 181568 470
98607 655347 509
990864 413957 525
929765 856356 476
369768 156931 443
967601 541832 525
791603 339287 509
354042 597157 470
182226 304104 443
847581 966094 507
41627 530644 470
379839 385443 379
543824 185388 470
174763 304537 443
119635 918746 525
538906 255185 470
546471 660749 509
263469 695057 509
698371 262869 509
325251 399017 441
123590 626805 509
827591 521526 509
862003 653073 525
876269 758746 525
748149 212336 509
